Time, Velocity, X, Y, 
340,0,382,471
341,1.26316,382,466
342,2.28768,381,457
343,1.26316,381,452
344,1.76842,381,445
345,1.01053,381,441
346,0,381,439
347,1.83919,379,432
348,0.910876,377,429
349,1.26316,374,425
350,0.564901,373,423
351,1.26316,370,419
352,0.71455,368,417
353,0.564901,367,415
354,0,366,414
356,0,365,415
357,0.564901,363,414
358,0,362,414
359,0.564901,360,415
360,0,359,416
361,0.798891,356,417
362,0.757895,353,417
363,4.76664,363,433
364,5.00185,349,419
365,0,348,419
366,0,347,419
367,0,347,418
381,0,340,395
382,1.26316,336,392
383,1.26316,332,389
384,2.39667,323,386
385,0.910876,320,384
386,1.61763,315,380
387,0,314,379
388,0.564901,312,378
389,0,313,377
390,0,312,377
391,0.564901,314,376
392,0,314,375
393,0,314,375
394,0.564901,316,374
395,0,316,375
396,0,317,374
397,0,317,374
398,0,317,374
399,0,317,375
400,0,317,375
401,0,317,375
402,0,317,374
403,0,317,374
404,0,317,374
405,0,317,374
406,0,317,373
407,0,317,373
408,0,317,373
409,0,317,373
410,0,317,373
411,0,317,373
412,0,317,373
413,0,317,373
414,10.0863,354,388
415,0,356,388
416,1.26316,360,391
417,0.564901,358,390
418,2.94617,368,396
419,2.03678,361,392
420,12.1079,317,373
421,11.3121,358,391
422,11.3121,317,373
423,0,317,373
424,0,317,373
425,9.38825,351,388
426,9.38825,317,373
427,0,317,373
428,0,317,373
429,0,317,373
430,18.3084,373,419
431,18.5043,316,373
432,0,317,373
433,0,317,373
434,0,316,373
435,0,317,373
436,0,317,373
437,0,317,373
438,0,317,373
439,0,317,373
440,0,317,373
441,0,317,373
442,0,317,373
443,0,317,373
444,13.2385,356,408
445,13.4276,316,373
446,0,317,373
447,0,317,373
448,12.5657,360,398
449,2.15849,368,401
450,0.798891,365,400
451,13.9131,317,373
452,0,316,373
453,0,317,373
454,0,317,373
455,0,317,373
456,0,317,373
457,0,317,373
458,0,317,373
459,0,317,373
460,0,317,373
461,0,317,373
462,0,316,373
463,0,316,373
464,0,316,373
465,0,317,373
466,0,317,373
467,0,317,373
468,0,317,373
469,0,316,373
470,0,317,374
471,0,317,374
472,0,317,373
475,0,317,373
476,0,317,373
477,0,317,373
478,0,317,373
479,0,317,373
480,0,317,373
481,0,317,373
482,0,317,373
483,0,317,373
484,0,317,373
485,0,317,373
486,0,317,373
487,0,317,373
488,0,317,373
489,0,317,373
490,0,317,373
491,0,317,373
492,0,317,373
493,0,317,373
494,0,317,373
495,0,317,373
496,0,317,373
497,0,317,373
498,0,317,373
499,0,317,373
500,0,317,373
501,0,317,373
502,0,317,373
503,0,317,373
504,0,317,373
505,0,317,373
506,0,317,373
507,0,317,373
508,0,317,373
509,0,317,373
510,0,317,373
511,0,317,373
512,0,317,373
513,0,317,373
514,0,317,373
515,0,317,373
516,0,317,373
517,0,317,373
518,0,316,373
519,0,317,373
520,0,317,373
521,0,317,373
522,0,317,373
523,0,317,373
524,0,317,373
525,0,317,373
526,0,317,373
527,0,317,373
528,0,317,373
529,0,317,373
530,0,317,373
531,0,317,373
532,0,317,373
533,0,317,373
534,0,317,373
535,0,317,373
536,0,317,373
537,0,317,373
538,0,317,373
539,0,317,373
540,0,317,373
541,0,317,373
542,0,317,373
543,0,317,373
544,0,317,373
545,0,317,373
546,0,317,373
547,0,317,373
548,0,317,373
549,0,317,373
550,0,317,373
551,0,317,373
552,0,317,373
553,0,316,373
556,0,291,373
557,2.79041,280,372
558,1.04163,276,371
559,2.03678,268,372
560,1.01053,264,372
562,1.01053,252,370
563,1.76842,245,370
564,1.01053,241,370
565,2.03678,233,369
566,0.798891,230,368
567,2.02105,222,368
568,0.757895,219,368
569,1.04163,215,367
570,0.757895,212,367
571,2.03678,204,366
572,1.76842,197,366
573,0.798891,194,365
574,2.03678,186,364
575,0.757895,183,364
576,2.03678,175,363
577,0,173,363
578,1.5367,167,362
579,1.01053,163,362
580,1.36046,158,360
581,1.01053,154,360
582,1.5367,148,359
583,0.798891,145,358
584,1.5367,139,357
585,1.5367,133,356
586,0.757895,130,356
587,0.757895,127,356
588,1.28817,122,355
589,0.798891,119,354
590,1.28817,114,353
591,0.798891,111,352
592,1.28817,106,351
593,0.798891,103,350
594,0,101,350
595,1.59778,95,348
596,0.757895,92,348
597,0,90,348
598,1.1298,86,346
599,1.04163,82,345
600,0.564901,80,344
601,1.28817,75,343
602,0.564901,73,342
603,0,71,342
604,1.36046,66,340
605,1.04163,62,339
606,0.564901,60,338
607,0,59,338
608,1.1298,55,336
609,0.798891,52,335
610,0.564901,50,334
611,0.564901,48,333
612,0,47,332
613,1.04163,43,331
614,0,42,330
615,0.798891,39,329
616,0,38,328
617,0.910876,35,326
618,0,34,326
619,0.564901,32,325
620,0.564901,30,324
621,0,28,324
622,0.71455,26,322
623,0,25,322
624,0.910876,22,320
625,0,21,320
626,0,19,320
627,0.564901,17,319
628,0,16,318
629,0,15,318
630,0,14,317
631,0,13,317
632,0,13,317
633,0,13,317
640,0,13,320
641,0,14,319
643,0,13,319
644,0,13,319
645,0,13,319
646,0,12,319
647,0,12,319
648,0,11,319
649,0,12,319
650,0,11,319
655,0,19,315
660,0,59,303
661,1.59778,65,301
662,3.37053,78,298
663,1.36046,83,296
664,1.36046,88,294
665,2.88044,99,291
666,1.5367,105,290
667,3.19556,117,286
671,3.19556,152,295
678,3.19556,238,328
686,3.19556,318,359
687,2.15849,326,362
698,2.15849,331,374
699,0.798891,328,373
700,0,327,373
701,0,326,372
702,0,326,372
703,0,326,371
704,0,326,371
705,0,326,371
709,0,327,371
710,0,326,372
711,0,325,372
712,0,325,373
713,0,326,373
714,0,325,372
715,0,325,372
716,0,325,372
717,0,325,372
718,0,325,373
719,0,325,372
720,0,325,373
721,0,325,373
722,0,325,372
723,0,325,372
724,0,325,372
725,0,325,372
726,0,325,372
727,0,325,372
728,0,324,373
729,0,325,372
730,0,325,372
731,0,325,373
732,0,325,373
733,0,325,372
734,0,325,373
735,0,324,373
736,0,325,372
737,0,325,372
738,0,325,372
739,0,325,372
740,0,325,373
741,0,325,372
742,0,325,373
743,0,325,372
744,0,325,372
745,0,325,372
746,0,325,372
747,0,324,372
748,0,325,372
749,0,325,373
750,0,325,372
751,0,325,372
752,0,325,372
753,0,325,373
754,0,325,373
755,0,325,372
756,0,324,373
757,0,325,373
758,0,325,372
759,0,325,372
760,0,324,373
761,0,325,372
762,0,325,373
763,0,325,373
764,0,325,373
765,0,325,372
766,0,325,372
767,0,325,373
768,0,325,372
769,0,325,372
770,0,325,372
771,0.564901,323,373
774,0.564901,279,373
776,0.564901,256,373
781,0.564901,205,373
782,1.51579,199,373
784,1.51579,177,372
785,1.51579,171,372
786,3.04209,159,371
787,1.76842,152,371
788,3.03158,140,371
789,1.76842,133,371
790,3.04209,121,370
791,1.51579,115,370
792,1.78638,108,369
793,1.51579,102,369
794,3.03158,90,369
795,1.51579,84,369
796,2.79041,73,368
797,1.51579,67,368
798,3.04209,55,367
799,1.26316,50,367
800,1.51579,44,367
801,2.53892,34,366
802,2.79041,23,365
803,1.26316,18,365
812,1.26316,14,361
813,0,14,361
814,0,14,360
815,0,14,360
816,0,15,360
817,0,15,360
818,0,16,360
819,0,17,360
820,0,18,360
821,0,19,360
822,0,19,360
823,0,20,360
824,0,20,360
825,0,21,360
826,0,20,360
827,0,20,361
828,0,21,360
829,0,21,361
830,0,21,361
831,0,21,361
832,0,21,362
833,0,21,361
834,0,21,361
835,0,21,361
836,0,21,361
837,0,21,361
838,0,21,361
839,0,21,361
840,0,21,361
841,0,21,361
842,0,21,361
843,0,21,361
851,0,56,361
852,1.04163,60,362
853,1.26316,65,362
854,2.27368,74,362
855,1.01053,78,362
856,2.52632,88,362
859,2.52632,135,374
860,2.39667,144,377
861,2.39667,153,380
862,4.71955,171,385
863,1.83919,178,387
864,5.03365,197,393
869,5.03365,248,409
875,5.03365,334,438
877,5.03365,338,436
878,0,338,435
879,1.5367,337,429
880,1.04163,336,425
881,2.88044,333,414
882,1.5367,332,408
883,3.0734,330,396
884,1.5367,329,390
885,2.28768,328,381
886,1.01053,328,377
887,0.564901,327,375
888,0.564901,326,373
889,0,325,372
890,0,325,373
891,0,324,373
892,0,324,374
893,0,324,374
894,0,325,374
895,0,325,375
896,0,325,375
897,0,324,375
898,0,325,375
899,0,325,375
900,0,325,375
901,0,325,375
902,0,325,374
903,0,325,374
904,0,324,374
905,0,324,374
906,0,324,374
907,0,324,374
908,0,324,374
909,0,324,374
910,0,324,374
911,0,324,374
912,0,324,374
913,0,324,374
914,0,324,374
915,0,324,374
916,0,324,374
917,0,324,374
918,0,324,374
919,0,324,374
920,0,324,374
921,0,324,374
922,0,324,374
923,0,324,374
924,0,324,374
925,0,324,374
926,0,324,374
927,0,324,374
928,0,324,374
929,0,324,374
930,0,324,374
931,0,324,374
932,0,324,374
933,0,324,374
934,0,324,374
935,0,324,374
936,0,324,374
937,0,324,374
938,0,324,374
939,0,324,374
940,0,324,374
941,0,324,374
942,0,324,374
943,0,324,374
944,0,324,374
945,0,324,374
946,0,324,374
947,0,324,374
948,0,324,374
949,0,324,374
950,0,324,374
951,0,324,374
952,0,324,374
953,0,324,374
954,0,324,374
955,0,324,374
956,0,324,374
957,0,324,374
958,0,324,374
959,0,324,374
960,0,324,374
961,0,324,374
962,0,324,374
963,0,324,374
964,0,324,374
965,0,324,374
966,0,324,374
967,0,324,374
968,1.51579,318,374
972,1.51579,275,373
976,1.51579,250,373
977,1.26316,245,373
978,2.52632,235,373
979,1.26316,230,373
980,2.52632,220,373
981,1.01053,216,373
982,1.28817,211,372
984,1.28817,196,372
985,2.27368,187,372
986,1.01053,183,372
987,2.52632,173,372
988,1.01053,169,372
989,2.03678,161,371
990,1.04163,157,370
991,1.26316,152,370
992,2.02105,144,370
993,2.27368,135,370
994,1.01053,131,370
995,2.28768,122,369
996,1.76842,115,369
997,2.02105,107,369
998,1.01053,103,369
999,2.27368,94,369
1000,0.757895,91,369
1001,1.76842,84,369
1002,0.757895,81,369
1003,1.76842,74,369
1004,2.03678,66,368
1005,1.01053,62,368
1006,0.757895,59,368
1007,1.76842,52,368
1008,1.51579,46,368
1009,0.757895,43,368
1010,1.76842,36,368
1011,0.757895,33,368
1012,1.5367,27,367
1013,1.01053,23,367
1014,0.757895,20,367
1015,1.26316,15,367
1016,0,14,367
1059,0,87,373
1061,0,118,373
1062,2.02105,126,373
1063,5.05263,146,373
1064,2.27368,155,373
1065,2.27368,164,373
1066,4.55438,182,374
1067,2.28768,191,373
1068,4.8,210,373
1083,4.8,344,376
1084,0.564901,342,377
1085,1.04163,338,378
1086,0,336,378
1087,1.26316,331,378
1088,0,329,378
1089,0,327,378
1090,0,325,378
1091,0,324,377
1092,0,324,376
1093,0,324,375
1094,0,325,375
1095,0,325,375
1096,0,325,375
1097,0,324,375
1098,0,325,375
1099,0,325,375
1100,0,324,374
1101,0,324,374
1102,0,324,374
1103,0,324,374
1104,0,324,374
1105,0,324,374
1106,0,324,374
1107,0,324,374
1108,0,324,374
1109,0,324,374
1110,0,324,374
1111,0,324,374
1112,0,324,374
1113,0,324,374
1114,0,324,374
1115,0,324,374
1116,0,324,374
1117,0,324,374
1118,0,324,374
1119,0,324,374
1120,0,324,374
1121,0,324,374
1122,0,324,374
1123,0,324,374
1124,0,324,374
1125,0,324,374
1126,0,324,374
1127,0,324,374
1128,0,324,374
1129,0,324,374
1130,1.5367,318,375
1134,1.5367,273,373
1140,1.5367,232,373
1141,1.26316,227,373
1142,2.27368,218,373
1143,1.26316,213,373
1144,2.52632,203,373
1145,1.26316,198,373
1146,2.27368,189,373
1147,1.26316,184,373
1148,1.26316,179,373
1149,1.28817,174,372
1150,2.28768,165,373
1151,2.03678,157,372
1152,1.28817,152,373
1153,1.01053,148,373
1154,2.28768,139,372
1155,1.04163,135,373
1156,1.28817,130,372
1157,2.03678,122,373
1158,0.757895,119,373
1159,2.27368,110,373
1160,1.01053,106,373
1161,2.27368,97,373
1162,0.757895,94,373
1163,1.76842,87,373
1164,1.04163,83,374
1165,0.757895,80,374
1166,1.01053,76,374
1167,1.76842,69,374
1168,1.01053,65,374
1169,1.76842,58,374
1170,1.01053,54,374
1171,1.78638,47,375
1172,0.757895,44,375
1173,0.757895,41,375
1174,1.51579,35,375
1175,0.757895,32,375
1176,1.76842,25,375
1177,0.798891,22,376
1178,1.51579,16,376
1179,0,14,376
1180,0,14,377
1208,0,18,382
1214,0,57,379
1215,1.76842,64,379
1220,1.76842,102,378
1221,1.51579,108,378
1222,3.29391,121,379
1223,3.29391,134,378
1224,1.78638,141,379
1225,1.51579,147,379
1226,3.53684,161,379
1227,2.77895,172,379
1228,3.28421,185,379
1229,1.5367,191,380
1230,16.4502,147,428
1231,20.1631,210,379
1232,3.04209,222,380
1233,1.76842,229,380
1234,3.03158,241,380
1236,3.03158,259,381
1237,3.03158,271,381
1238,1.26316,276,381
1240,1.26316,295,382
1241,1.51579,301,382
1243,1.51579,319,383
1244,1.51579,325,383
1245,2.79041,336,384
1246,0,337,383
1247,0,337,382
1248,0,336,381
1249,0.564901,334,380
1250,0,334,379
1251,1.07183,331,376
1252,0,330,376
1253,0.71455,328,374
1254,0,327,374
1255,0,326,374
1256,0,326,374
1257,0,326,374
1258,0,326,374
1259,0,326,374
1260,0,326,375
1261,0,326,375
1262,0,325,374
1263,0,325,374
1264,0,325,374
1265,0,324,374
1266,0,324,374
1267,0,324,374
1268,0,324,374
1269,0,324,374
1270,0,324,374
1271,0,324,374
1272,0,324,374
1273,0,324,374
1274,0,324,374
1275,0,324,374
1276,0,324,374
1277,0,324,374
1278,0,324,374
1279,0,324,374
1280,0,324,374
1281,0,324,374
1282,0,325,374
1283,0,325,374
1284,0,324,374
1285,0,324,374
1286,0,324,374
1287,0,324,374
1288,0,324,374
1289,0,324,374
1290,0,324,374
1291,0,324,374
1292,0,324,374
1293,0,324,374
1294,0,325,374
1295,0,324,374
1296,0,324,374
1297,0,324,374
1298,0,324,374
1299,0,324,374
1300,0,325,374
1301,0,324,374
1302,0,324,374
1303,0,324,374
1304,0,324,374
1305,0,324,374
1306,0,324,374
1307,0,325,374
1308,0,324,374
1309,0,324,374
1310,0,324,374
1311,0,324,374
1312,0,324,374
1313,0,324,374
1314,0,325,374
1315,0,324,374
1316,0,324,374
1317,0,324,374
1318,0,324,374
1319,0,325,374
1320,0,324,374
1321,0,325,374
1322,0,324,374
1323,0,324,374
1324,0,324,374
1325,0,324,374
1326,0,325,374
1327,0,324,374
1328,0,325,374
1329,0,324,374
1330,0,324,374
1331,0,324,374
1332,0,325,374
1333,0,324,374
1334,0,324,374
1335,0,324,374
1336,0,324,374
1337,0,324,374
1338,0,324,374
1339,0,324,374
1340,0,324,374
1341,0,324,374
1342,0,325,374
1343,0,324,374
1344,0,324,374
1345,0,324,374
1346,0,324,374
1347,0,324,374
1348,0,324,374
1349,0,324,374
1350,0,324,374
1351,0,324,374
1352,0,324,374
1353,0,324,374
1354,0,324,374
1355,0,324,374
1356,0,324,374
1357,0,324,374
1358,0,324,374
1359,0,325,374
1360,0,324,374
1361,0,324,374
1362,0,325,374
1363,0,324,374
1364,0,324,374
1365,0,324,374
1366,0,325,374
1367,0,324,374
1368,0,324,374
1369,0,324,374
1370,0,324,374
1371,0,324,374
1372,0,324,374
1373,0,324,374
1374,0,324,374
1375,0,324,374
1376,0,324,374
1377,0,324,374
1378,0,324,374
1379,0,324,374
1380,0,324,374
1381,0,324,374
1382,0,324,374
1383,0,325,374
1384,0,325,374
1385,0,325,374
1386,0,325,374
1387,0,324,374
1388,0,325,374
1389,0,324,374
1390,0,324,374
1391,0,325,374
1397,0,390,425
1401,0,189,376
1403,0,167,376
1404,3.53684,153,376
1405,1.76842,146,376
1406,2.03678,138,377
1407,1.78638,131,376
1408,3.29391,118,377
1409,1.76842,111,377
1410,3.78947,96,377
1411,1.5367,90,378
1412,3.03158,78,378
1413,1.76842,71,378
1414,3.28421,58,378
1415,1.51579,52,378
1416,1.76842,45,378
1417,3.04209,33,379
1418,1.51579,27,379
1419,46.4842,211,379
1425,46.4842,364,379
1471,46.4842,25,379
1482,46.4842,79,376
1483,2.48813,88,372
1484,1.5367,94,371
1485,2.28768,103,370
1486,2.53892,113,371
1487,1.01053,117,371
1488,1.01053,121,371
1489,2.02105,129,371
1490,1.01053,133,371
1491,2.03678,141,372
1492,0.757895,144,372
1493,1.04163,148,373
1494,2.02105,156,373
1495,1.04163,160,374
1496,1.5367,166,375
1497,1.01053,170,375
1498,1.5367,176,376
1499,1.01053,180,376
1500,1.01053,184,376
1501,1.83919,191,378
1502,1.01053,195,378
1503,0.757895,198,378
1504,1.78638,205,379
1505,0.757895,208,379
1506,1.5367,214,380
1507,1.01053,218,380
1508,1.78638,225,381
1509,0.564901,227,382
1510,0.757895,230,382
1511,1.5367,236,383
1512,0.757895,239,383
1513,1.5367,245,384
1515,1.5367,251,384
1516,1.51579,257,384
1517,0,259,384
1518,1.5367,265,385
1519,0.798891,268,384
1520,0.564901,270,385
1521,1.28817,275,386
1522,1.04163,279,387
1523,1.01053,283,387
1524,1.04163,287,388
1525,1.01053,291,388
1526,0.757895,294,388
1527,1.26316,299,388
1528,0.757895,302,388
1529,0.798891,305,389
1530,1.01053,309,389
1531,0.798891,312,390
1532,0,314,390
1533,0.798891,317,391
1534,0,318,391
1535,0.564901,319,389
1536,0,319,387
1537,0.798891,320,384
1538,1.36046,322,379
1539,0,322,377
1540,0.910876,324,374
1541,0,324,374
1542,0,325,375
1543,0,325,375
1544,0,325,376
1545,0,325,376
1546,0,325,376
1547,0,325,376
1548,0,325,376
1549,0,325,375
1550,0,325,375
1551,0,324,374
1552,0,324,374
1553,0,324,374
1554,0,324,374
1555,0,324,374
1556,0,324,374
1557,0,324,374
1558,0,324,374
1559,0,324,374
1560,0,324,374
1561,0,324,374
1562,0,324,374
1563,0,324,374
1564,0,324,374
1565,0,324,374
1566,0,324,374
1567,0,324,374
1568,0,324,374
1569,0,324,374
1570,0,324,374
1571,0,324,374
1572,0,324,374
1573,0,324,374
1574,0,324,374
1575,0,324,374
1576,0,324,374
1577,0,324,374
1578,0,324,374
1579,0,324,374
1580,0,324,374
1581,0,324,374
1582,0,324,374
1583,0,324,374
1584,0,324,374
1585,0,324,374
1586,0,324,374
1587,0,324,374
1588,0,324,374
1589,0,324,374
1590,0,324,374
1591,0,324,374
1592,0,324,374
1593,0,324,374
1594,0,324,374
1595,0,324,374
1596,0,324,374
1597,0,324,374
1598,0,324,374
1599,0,324,374
1600,0,324,374
1601,0.798891,321,375
1602,4.55438,303,376
1604,4.55438,282,376
1605,1.5367,276,377
1608,1.5367,255,378
1610,1.5367,238,379
1611,2.79041,227,380
1612,1.28817,222,381
1613,2.52632,212,381
1614,17.6842,282,381
1615,20.4647,201,382
1616,2.79041,190,383
1617,1.26316,185,383
1618,1.28817,180,384
1619,2.52632,170,384
1620,1.28817,165,385
1621,2.53892,155,386
1622,1.01053,151,386
1623,1.28817,146,387
1624,2.28768,137,388
1625,1.26316,132,388
1626,2.28768,123,389
1627,1.26316,118,389
1628,1.01053,114,389
1629,2.28768,105,390
1630,1.01053,101,390
1631,2.28768,92,391
1632,1.01053,88,391
1633,1.01053,84,391
1634,2.03678,76,392
1635,1.01053,72,392
1636,2.03678,64,393
1637,1.01053,60,393
1638,2.03678,52,394
1639,0.757895,49,394
1640,1.04163,45,395
1641,1.01053,41,395
1642,1.78638,34,396
1643,1.01053,30,396
1644,1.5367,24,397
1645,1.01053,20,397
1646,1.5367,14,398
1686,1.5367,52,388
1690,1.5367,88,388
1691,3.0734,100,390
1692,1.51579,106,390
1693,3.29391,119,391
1694,2.79041,130,392
1695,1.76842,137,392
1696,3.04209,149,393
1697,1.5367,155,394
1698,1.51579,161,394
1699,2.79041,172,395
1700,1.26316,177,395
1701,2.02105,185,395
1702,3.04209,197,396
1703,1.5367,203,397
1704,2.79041,214,398
1705,1.51579,220,398
1706,3.04209,232,399
1708,3.04209,248,400
1709,1.5367,254,401
1710,1.51579,260,401
1711,2.79041,271,402
1712,1.51579,277,402
1714,1.51579,293,404
1716,1.51579,310,406
1718,1.51579,321,407
1719,2.27368,330,407
1720,0,330,406
1721,1.01053,330,402
1722,0.757895,330,399
1723,2.27368,330,390
1724,1.01053,330,386
1725,1.51579,330,380
1726,0,330,378
1727,0,329,377
1728,0,329,376
1729,0.564901,330,374
1730,0,329,373
1731,0,329,374
1732,0,330,374
1733,0,329,374
1734,0,329,374
1735,0,330,374
1736,0,329,373
1737,0,329,372
1738,0,329,373
1739,0,329,373
1740,0,329,373
1741,0,329,373
1742,0,329,373
1743,0,329,373
1744,0,329,373
1745,0,329,373
1746,0,329,373
1747,0,329,373
1748,0,329,373
1749,0,329,373
1750,0,329,373
1751,0,329,373
1752,0,329,373
1753,0,329,373
1754,0,328,373
1755,0,329,373
1756,0,329,373
1757,0,329,373
1758,0,329,373
1759,0,329,373
1760,0,329,373
1761,0,329,373
1762,0,329,373
1763,0,329,373
1764,0,329,373
1765,0,329,373
1766,0,329,373
1767,0,329,373
1768,0,329,373
1769,0,329,373
1770,0,329,373
1771,0,329,373
1772,0,329,373
1773,0,329,373
1774,0,329,373
1775,0,329,373
1776,0,329,373
1782,0,278,373
1786,0,246,374
1787,2.77895,235,374
1788,1.26316,230,374
1789,1.51579,224,374
1790,2.52632,214,374
1792,2.52632,199,375
1793,1.26316,194,375
1794,2.52632,184,375
1795,1.51579,178,375
1796,2.27368,169,375
1797,1.26316,164,375
1798,0.798891,161,376
1799,1.51579,155,376
1800,2.27368,146,376
1801,1.26316,141,376
1802,2.27368,132,376
1803,1.26316,127,376
1804,2.03678,119,377
1805,2.27368,110,377
1806,1.01053,106,377
1807,2.52632,96,377
1808,1.76842,89,377
1809,1.04163,85,378
1810,2.02105,77,378
1811,1.01053,73,378
1812,2.02105,65,378
1813,1.01053,61,378
1814,1.01053,57,378
1815,2.03678,49,379
1816,32.3368,177,379
1817,34.8632,39,379
1818,1.04163,35,380
1819,1.76842,28,380
1820,1.01053,24,380
1821,1.51579,18,380
1822,1.01053,14,380
1873,1.01053,59,362
1874,1.6947,65,359
1875,1.47308,70,356
1876,3.43616,83,352
1877,1.47308,88,349
1878,1.36046,93,347
1879,3.05256,104,342
1880,1.6947,110,339
1881,3.0734,122,337
1883,3.0734,149,342
1884,2.57635,159,344
1885,1.59778,165,346
1886,4.71955,183,351
1887,2.08325,191,353
1888,4.23488,207,358
1889,2.08325,215,360
1890,4.16651,231,364
1899,4.16651,328,389
1900,3.0734,340,391
1901,0,338,391
1902,0.71455,336,389
1903,0,336,388
1904,0,336,387
1905,1.1298,334,383
1906,0,333,382
1907,0.910876,330,380
1908,0,330,380
1909,1.4291,326,376
1910,0,325,375
1911,0,325,374
1912,0,325,374
1913,0,325,373
1914,0,325,373
1915,0,325,373
1916,0,325,374
1917,0,325,374
1918,0,325,373
1919,0,325,373
1920,0,325,373
1921,0,325,373
1922,0,325,373
1923,0,325,373
1924,0,325,373
1925,0,325,373
1926,0,325,373
1927,0,325,373
1928,0,325,373
1929,0,325,373
1930,0,325,373
1931,0,325,373
1932,0,325,372
1933,0,324,372
1934,0,325,373
1935,0,325,373
1936,0,325,373
1937,0,325,373
1938,0,325,373
1939,0,325,373
1940,0,325,373
1941,0,325,373
1942,0,325,373
1943,0,325,373
1944,0,325,373
1945,0,325,372
1946,0,324,373
1947,0,325,373
1948,0,325,373
1949,0,324,373
1950,0,325,372
1951,0,325,373
1952,0,325,373
1953,0,324,373
1954,0,325,372
1955,0,324,372
1956,0,325,373
1957,0,325,373
1958,0,325,373
1959,0,325,372
1960,0,325,373
1961,0,325,373
1962,0,325,373
1963,0,325,373
1964,0,324,373
1965,0,325,373
1966,0,325,373
1967,0,325,373
1968,0,324,373
1969,0,324,373
1973,0,277,374
1974,20.722,359,376
1975,0,359,377
1976,8.08816,327,376
1977,2.53892,337,377
1978,23.002,246,374
1979,17.4334,315,375
1980,12.7222,365,381
1981,16.7043,299,377
1982,21.2451,215,373
1983,2.52632,205,373
1984,1.28817,200,372
1985,1.26316,195,372
1986,2.52632,185,372
1987,1.28817,180,371
1988,2.52632,170,371
1989,1.01053,166,371
1990,2.03678,158,370
1991,1.51579,152,370
1992,1.01053,148,370
1993,2.28768,139,369
1994,1.26316,134,369
1995,1.04163,130,368
1996,2.27368,121,368
1997,1.01053,117,368
1998,2.02105,109,368
1999,1.04163,105,367
2000,2.53892,95,366
2001,0.798891,92,367
2002,1.78638,85,366
2003,1.04163,81,365
2004,1.01053,77,365
2005,2.03678,69,364
2006,0.757895,66,364
2007,1.01053,62,364
2008,1.78638,55,363
2009,1.04163,51,362
2010,1.76842,44,362
2011,0.798891,41,361
2012,0.757895,38,361
2013,1.83919,31,359
2014,1.01053,27,359
2015,1.5367,21,358
2016,0.798891,18,357
2017,1.04163,14,356
2059,1.04163,16,349
2066,1.04163,64,342
2067,1.28817,69,341
2071,1.28817,103,343
2072,1.5367,109,344
2073,3.37053,122,347
2074,1.83919,129,349
2075,1.78638,136,350
2076,3.37053,149,353
2077,1.78638,156,354
2078,3.43616,169,358
2079,1.28817,174,359
2080,3.61713,188,362
2081,1.83919,195,364
2082,33.5772,92,448
2083,36.9309,215,369
2085,36.9309,234,373
2090,36.9309,278,384
2092,36.9309,291,387
2093,3.12488,303,390
2094,1.83919,310,392
2095,3.12488,322,395
2096,1.78638,329,396
2097,0,331,396
2098,0,331,395
2099,0.564901,332,393
2100,1.51579,332,387
2101,0.757895,332,384
2102,1.26316,332,379
2103,0.564901,331,377
2104,0,331,375
2105,0,331,375
2106,0,331,375
2107,0,331,376
2108,0,331,376
2109,0,331,375
2110,0,330,376
2111,0,331,376
2112,0,331,374
2113,0,330,374
2114,0,330,374
2115,0,331,374
2116,0,330,374
2117,0,331,374
2118,0,330,374
2119,0,330,374
2120,13.6515,384,372
2121,13.6631,330,375
2122,0,330,375
2123,0,330,375
2124,0,330,375
2125,0,330,375
2126,0,330,375
2127,0,330,375
2128,0,330,375
2129,0,330,375
2130,0,330,375
2131,0,330,375
2132,0,330,375
2133,0,330,375
2134,0,330,375
2135,0,330,375
2136,0,330,375
2137,0,330,375
2138,0,330,375
2139,0,330,375
2140,0,330,375
2141,0,330,375
2142,0,330,375
2143,0,330,375
2144,0,330,375
2145,0,330,375
2146,0,330,375
2147,0,330,375
2148,0,330,375
2149,0,329,376
2150,0,330,376
2151,0,330,376
2152,0,329,376
2154,0,329,377
2155,0,329,377
2157,0,329,376
2158,0,329,377
2159,0,329,376
2160,0,329,377
2161,0,329,377
2162,0,329,377
2163,0,329,377
2164,0,329,376
2166,0,329,377
2167,0,329,377
2168,0,329,377
2171,0,329,377
2172,0,329,377
2173,0,329,377
2174,0,329,377
2175,0,329,377
2176,0,329,376
2177,0,329,377
2178,0,330,377
2179,0,329,377
2180,1.76842,322,377
2182,1.76842,296,376
2186,1.76842,270,376
2188,1.76842,255,375
2192,1.76842,223,376
2193,2.52632,213,376
2194,1.51579,207,376
2195,1.04163,203,377
2196,2.52632,193,377
2197,1.26316,188,377
2198,2.77895,177,377
2199,1.01053,173,377
2200,1.04163,169,378
2201,2.28768,160,379
2202,1.28817,155,378
2203,1.28817,150,379
2204,2.02105,142,379
2205,2.53892,132,380
2206,1.01053,128,380
2207,1.28817,123,381
2208,2.03678,115,382
2209,2.02105,107,382
2210,1.26316,102,382
2211,1.28817,97,383
2212,0.757895,94,383
2213,2.03678,86,384
2214,0.757895,83,384
2215,2.03678,75,385
2216,1.01053,71,385
2217,0.757895,68,385
2218,2.03678,60,386
2219,1.78638,53,387
2220,1.01053,49,387
2221,0.798891,46,388
2222,1.01053,42,388
2223,1.5367,36,389
2224,0.757895,33,389
2225,1.78638,26,390
2226,0.798891,23,391
2227,1.76842,16,391
2228,0.564901,14,392
2245,0.564901,103,427
2256,0.564901,430,380
2261,0.564901,48,386
2262,2.32915,57,384
2263,1.28817,62,383
2264,1.04163,66,382
2265,2.32915,75,380
2266,1.04163,79,379
2267,2.63755,89,376
2270,2.63755,127,381
2271,34.3588,263,382
2272,24.5378,166,387
2273,24.7631,264,385
2274,19.9978,185,390
2275,11.8764,162,431
2276,17.767,223,396
2286,17.767,339,411
2287,0,339,409
2288,1.51579,339,403
2289,1.04163,338,399
2290,1.04163,337,395
2291,1.83919,335,388
2292,1.04163,334,384
2293,0.910876,332,381
2294,0.564901,331,379
2295,0.798891,330,376
2296,0,329,376
2297,0,329,375
2298,0,329,375
2299,0,329,376
2300,0,329,375
2301,0,329,376
2302,0,329,375
2303,0,329,375
2304,0,329,375
2305,0,329,375
2306,0,329,375
2307,0,329,375
2308,0,329,375
2310,0,329,376
2311,0,329,377
2312,0,330,377
2313,0,330,377
2314,0,330,377
2315,0,330,377
2316,0,329,377
2317,0,329,377
2318,0,329,377
2319,0,329,377
2320,0,329,376
2321,0,329,376
2324,0,330,377
2325,0,330,377
2326,0,329,377
2327,0,329,377
2328,0,330,377
2329,0,329,377
2330,0,329,377
2332,0,329,377
2333,0,329,377
2334,0,330,377
2335,0,329,377
2336,0,329,377
2337,0,329,377
2338,0,329,377
2339,0,329,377
2340,0,329,377
2341,0,329,377
2342,0,329,377
2343,0,329,377
2344,0,329,377
2346,0,305,376
2347,4.04211,289,376
2348,2.03678,281,375
2352,2.03678,247,375
2354,2.03678,230,375
2356,2.03678,213,375
2357,1.26316,208,375
2358,1.26316,203,375
2359,1.26316,198,375
2360,2.77895,187,375
2361,1.51579,181,375
2362,1.76842,174,375
2363,2.27368,165,375
2364,1.01053,161,375
2365,2.52632,151,375
2366,1.26316,146,375
2367,2.52632,136,375
2368,1.26316,131,375
2369,1.28817,126,376
2370,2.27368,117,376
2371,1.01053,113,376
2372,1.26316,108,376
2373,2.52632,98,376
2374,1.01053,94,376
2375,2.27368,85,376
2376,1.01053,81,376
2377,1.01053,77,376
2378,2.27368,68,376
2379,1.04163,64,377
2380,2.02105,56,377
2381,1.04163,52,378
2382,2.03678,44,379
2383,1.01053,40,379
2384,1.01053,36,379
2385,1.78638,29,380
2386,1.26316,24,380
2387,1.5367,18,381
2388,0.757895,15,381
2396,0.757895,14,383
2397,0,14,383
2398,0,14,384
2399,0,15,385
2400,0,16,386
2401,0,17,386
2402,0,18,387
2403,0.564901,20,388
2404,0,21,388
2405,0,22,389
2406,0,23,390
2407,0,24,390
2408,0,24,391
2413,0,27,393
2414,0,27,394
2415,0,27,394
2416,0,27,394
2417,0,27,395
2418,0,27,395
2420,0,111,425
2425,0,61,394
2426,2.03678,69,393
2427,1.78638,76,392
2428,3.04209,88,391
2429,3.28421,101,391
2430,1.5367,107,390
2431,3.04209,119,389
2432,1.51579,125,389
2433,1.5367,131,388
2434,3.04209,143,387
2435,1.5367,149,386
2436,1.76842,156,386
2437,3.0734,168,384
2438,1.26316,173,384
2439,1.76842,180,384
2440,3.0734,192,382
2441,1.51579,198,382
2442,3.04209,210,381
2443,1.51579,216,381
2444,3.04209,228,380
2445,1.5367,234,379
2446,46.5261,415,413
2448,46.5261,257,378
2450,46.5261,274,377
2453,46.5261,297,376
2454,1.51579,303,376
2455,2.77895,314,376
2456,1.5367,320,375
2457,2.77895,331,375
2464,2.77895,339,376
2465,0.564901,337,375
2466,0,336,374
2467,0,336,374
2468,0,336,375
2469,0,336,375
2470,0,335,375
2471,0,336,375
2472,0,336,376
2473,0,335,376
2474,0,335,377
2475,0,335,376
2476,0,335,376
2477,0,335,376
2478,0,335,376
2479,0,335,376
2480,0,335,376
2481,0,335,376
2482,0,335,376
2483,0,335,376
2484,0,335,376
2485,0,335,376
2486,0,335,376
2487,0,335,377
2488,0,335,376
2489,0,335,376
2490,0,335,376
2491,0,335,376
2492,0,335,376
2493,0,335,376
2494,0,335,376
2495,0,335,376
2496,0,335,376
2497,0,335,376
2498,0,335,376
2499,0,335,376
2500,0,335,376
2501,0,335,376
2502,0,335,376
2503,0,335,376
2504,0,335,376
2505,0,335,376
2506,0,335,377
2507,0,335,376
2508,0,335,376
2509,0,335,376
2510,1.04163,331,377
2514,1.04163,280,373
2517,1.04163,257,372
2519,1.04163,239,371
2520,1.51579,233,371
2521,2.77895,222,371
2522,1.5367,216,370
2523,1.26316,211,370
2524,1.51579,205,370
2526,1.51579,188,369
2527,3.03158,176,369
2528,1.01053,172,369
2529,1.28817,167,368
2530,2.52632,157,368
2531,1.26316,152,368
2532,1.51579,146,368
2533,2.52632,136,368
2534,1.26316,131,368
2535,2.52632,121,368
2536,1.01053,117,368
2537,2.52632,107,368
2538,1.26316,102,368
2539,2.27368,93,368
2540,1.26316,88,368
2541,1.01053,84,368
2542,1.04163,80,369
2543,2.27368,71,369
2544,1.26316,66,369
2545,2.27368,57,369
2546,0.757895,54,369
2547,2.28768,45,370
2548,1.01053,41,370
2549,2.02105,33,370
2550,1.01053,29,370
2551,1.04163,25,371
2552,1.76842,18,371
2553,1.01053,14,371
2563,1.01053,415,411
2586,1.01053,47,368
2587,2.02105,55,368
2588,3.82301,70,366
2589,1.78638,77,365
2590,3.57275,91,363
2591,1.5367,97,362
2592,4.04999,113,361
2593,1.5367,119,360
2594,1.78638,126,359
2595,3.57275,140,357
2596,1.78638,147,356
2597,3.57275,161,354
2598,1.76842,168,354
2599,1.59778,174,352
2600,3.54585,188,351
2601,1.78638,195,350
2602,1.76842,202,350
2604,1.76842,327,362
2605,23.2997,236,347
2606,1.78638,243,346
2607,3.29391,256,345
2610,3.29391,283,343
2611,38.6955,433,374
2612,35.5421,296,342
2617,35.5421,349,338
2619,35.5421,435,372
2623,35.5421,433,372
2627,35.5421,337,376
2628,0,337,377
2629,0,336,377
2630,0.757895,336,374
2631,0,336,374
2632,0,334,374
2633,0,332,374
2634,0,332,374
2635,0,332,374
2636,0,332,374
2637,0,332,374
2638,0,332,375
2639,0,332,375
2640,0,332,375
2641,0,332,374
2642,0,332,374
2643,0,332,374
2644,0,332,374
2645,0,331,374
2646,0,331,375
2647,0,331,374
2648,0,331,374
2649,0,331,374
2650,0,332,374
2651,3.79789,347,375
2652,4.04999,331,374
2653,0,331,374
2654,0,332,374
2655,0,332,374
2656,0,332,374
2657,0,332,374
2658,0,332,374
2659,0,331,374
2660,0,331,374
2661,0,332,374
2662,0,332,374
2663,0,332,374
2664,0,332,375
2665,0,332,375
2666,0,332,375
2667,0,332,375
2668,0,332,375
2669,0,332,375
2670,0,332,375
2671,0,332,375
2672,0,332,375
2673,0,332,375
2674,0,332,374
2675,0,332,375
2676,0,332,374
2677,0,332,375
2678,0,332,375
2679,0,332,375
2680,0,332,374
2681,0,332,374
2682,0,331,374
2683,0,332,374
2684,0,332,374
2685,0,332,374
2686,0,331,374
2687,0,332,374
2688,0,331,374
2689,0,331,374
2690,0,331,375
2691,0,331,374
2692,0,332,374
2696,0,291,376
2706,0,176,376
2707,1.26316,171,376
2709,1.26316,157,376
2710,3.53684,143,376
2711,3.29391,130,375
2712,1.76842,123,375
2713,1.51579,117,375
2714,3.53684,103,375
2715,2.03678,95,374
2716,1.51579,89,374
2717,2.79041,78,373
2718,3.29391,65,372
2719,1.51579,59,372
2720,1.76842,52,372
2721,1.28817,47,371
2722,3.04209,35,370
2723,3.04209,23,369
2724,1.26316,18,369
2725,1.01053,14,369
2735,1.01053,13,358
2736,0.564901,14,356
2737,0,14,356
2738,0,15,355
2739,0,16,355
2740,0,17,355
2741,0,18,355
2742,0,18,356
2743,0,20,356
2744,0,21,356
2745,0,22,357
2746,0,22,358
2747,0,23,359
2748,0,24,359
2749,0,25,359
2750,0,25,360
2761,0,57,365
2762,3.54585,71,366
2763,1.78638,78,367
2764,1.76842,85,367
2765,3.54585,99,368
2766,1.78638,106,369
2767,2.03678,114,370
2768,3.29391,127,371
2769,1.78638,134,372
2770,3.54585,148,373
2771,1.78638,155,374
2772,3.54585,169,375
2773,1.5367,175,376
2775,1.5367,197,378
2776,1.5367,203,379
2777,3.54585,217,380
2778,37.5971,105,478
2782,37.5971,264,385
2783,1.51579,270,385
2784,3.57275,284,387
2789,3.57275,332,392
2790,7.97692,363,386
2791,6.8955,336,390
2792,0,336,389
2793,0.798891,337,386
2794,0.798891,338,383
2795,1.01053,338,379
2808,1.01053,337,375
2809,9.35078,374,376
2810,9.09824,338,375
2814,9.09824,338,376
2815,0,338,376
2816,0,338,376
2817,0,338,377
2818,0,338,376
2819,0,338,376
2820,0,338,377
2821,0,338,376
2822,0,338,376
2823,0,338,376
2824,0,338,376
2825,0,338,376
2826,0,338,376
2827,0,338,376
2828,0,338,376
2829,0,338,376
2830,0,338,376
2831,0,338,376
2832,0,338,376
2833,0,338,376
2834,0,338,376
2835,0,338,376
2836,0,338,376
2837,0,338,376
2838,0,338,376
2839,0,338,376
2840,0,338,376
2841,0,338,376
2843,0,324,377
2844,1.5367,318,378
2846,1.5367,300,377
2857,1.5367,214,380
2858,2.53892,204,381
2859,1.51579,198,381
2860,2.52632,188,381
2861,3.04209,176,382
2862,1.01053,172,382
2863,1.26316,167,382
2864,2.28768,158,383
2865,1.28817,153,384
2866,2.52632,143,384
2867,2.53892,133,385
2868,1.26316,128,385
2869,2.03678,120,386
2870,1.26316,115,386
2871,1.04163,111,387
2872,2.53892,101,388
2873,1.26316,96,388
2874,2.02105,88,388
2875,1.04163,84,389
2876,0.757895,81,389
2877,2.28768,72,390
2878,2.02105,64,390
2879,1.04163,60,391
2880,1.01053,56,391
2881,1.01053,52,391
2882,2.03678,44,392
2883,0.757895,41,392
2884,2.03678,33,393
2885,1.01053,29,393
2886,2.57635,19,395
2915,2.57635,48,394
2916,0.757895,51,394
2917,2.53892,61,393
2918,1.26316,66,393
2919,1.04163,70,392
2920,2.53892,80,391
2921,1.76842,87,391
2923,1.76842,123,389
2925,1.76842,160,386
2950,1.76842,361,374
2951,3.04209,349,375
2952,0.798891,346,374
2953,1.5367,340,373
2954,0.564901,338,372
2955,1.28817,333,371
2956,0,332,371
2957,0.757895,329,371
2958,0,327,371
2959,0,325,371
2960,0,324,371
2961,0,324,370
2962,0,323,370
2963,0,323,370
2964,0,323,371
2965,0,323,372
2966,0,323,371
2967,0,322,370
2968,0,322,370
2969,0,322,370
2970,0,323,370
2971,0,323,370
2972,0,323,370
2973,0,323,370
2974,0,322,370
2975,0,323,370
2976,0,323,370
2977,0,323,370
2978,0,323,370
2979,0,323,370
2980,0,323,370
2981,0,323,370
2982,0,323,370
2983,0,323,370
2984,0,323,370
2985,0,323,370
2986,0,323,370
2987,0,323,370
2988,0,323,370
2989,0,323,370
2990,0,323,370
2991,0,323,370
2992,0,323,370
2993,0,323,370
2994,0,323,370
2995,13.821,370,398
2996,0,371,399
2997,14.1677,323,370
2998,0,323,370
2999,0,323,370
3000,0,323,370
3001,0,323,370
3002,0,323,370
3003,0,323,370
3004,0,323,370
3005,0,323,370
3006,0,323,370
3007,0,323,370
3008,0,322,370
3009,0,323,370
3010,0,323,370
3011,0,322,370
3012,0,323,370
3013,0,323,370
3014,0,323,370
3015,0,323,370
3016,0,323,370
3017,0,323,370
3018,0,323,370
3019,0,323,370
3020,0,323,370
3021,0,323,370
3022,0,323,370
3023,0,323,370
3024,0,323,370
3025,0,323,370
3026,0,323,370
3027,0,323,370
3028,0,323,370
3029,0,323,370
3030,0,323,370
3031,0,323,370
3032,0,323,370
3033,0,323,370
3034,0,323,370
3035,0,323,370
3036,0,323,370
3037,0,323,370
3038,0,323,370
3039,0,323,370
3040,0,323,370
3041,0,323,370
3042,0,323,370
3043,0,323,370
3044,0,323,370
3045,0,323,370
3046,0,323,370
3047,0,323,370
3048,0,323,370
3049,0,323,370
3050,0,322,370
3051,0,323,370
3052,0,323,370
3053,0,323,370
3054,0,323,370
3055,0,323,370
3056,0,323,370
3057,0,323,370
3058,0,323,370
3059,0,323,370
3060,0,323,370
3061,0,323,370
3062,0,323,370
3063,0,323,370
3064,0,323,370
3065,0,323,370
3066,0,323,370
3067,0,323,370
3068,0,323,370
3069,0,323,370
3070,0,323,370
3071,0,323,370
3072,0,323,370
3073,0,323,370
3074,0,323,370
3075,0,323,370
3076,0,323,370
3077,0,323,370
3078,0,323,370
3079,0,323,370
3080,0,323,370
3081,0,323,370
3082,0,323,370
3083,0,323,370
3084,0,323,370
3085,0,323,370
3086,0,323,370
3087,0,323,370
3088,0,323,370
3089,0,323,370
3090,0,323,370
3091,0,323,370
3092,0,323,370
3093,0,323,370
3094,0,323,370
3095,0,323,370
3096,0,323,370
3097,27.6109,214,362
3098,27.6109,323,370
3099,0,323,370
3100,0,323,370
3101,0,323,370
3102,0,323,370
3103,0,323,370
3104,0,323,370
3105,0,323,370
3106,0,323,370
3107,0,323,370
3108,0,323,370
3109,0,323,370
3110,0,323,370
3111,0,323,370
3112,0,323,370
3113,0,323,370
3114,0,323,370
3115,0,323,370
3116,0,323,370
3117,0,323,370
3118,0,323,370
3119,0,323,370
3120,0,323,370
3121,0,322,370
3122,0,323,370
3123,0,323,370
3124,0,323,370
3125,0,323,370
3126,0,323,371
3127,0,323,370
3128,0,323,370
3129,0,322,370
3130,0,323,370
3131,0,323,370
3132,0,323,370
3133,0,323,370
3134,0,322,370
3135,0,322,370
3136,0,322,370
3137,0,323,370
3138,0,323,370
3139,0,323,370
3140,0,323,370
3141,0,323,370
3142,0,323,370
3143,0,323,370
3144,0,323,370
3145,0,323,370
3146,0,323,370
3147,0,323,370
3148,0,323,370
3149,0,322,370
3150,0,323,370
3151,0,323,370
3152,0,323,370
3153,0,323,370
3154,0,323,370
3155,0,323,370
3156,0,323,370
3157,0,323,370
3158,0,323,370
3159,0,323,370
3160,0,323,370
3161,0,323,370
3162,0,323,370
3163,0,323,370
3164,0,323,370
3165,0,323,370
3166,0,322,370
3167,0,323,370
3168,0,323,370
3169,0,323,370
3170,0,323,370
3171,0,323,370
3172,0,323,370
3173,0,323,370
3174,0,323,370
3175,0,323,370
3176,0,323,370
3177,0,323,370
3178,0,323,370
3179,0,323,370
3180,0,323,370
3181,0,323,370
3182,0,323,370
3183,0,323,370
3184,0,323,370
3185,0,323,370
3186,0,323,370
3187,0,323,370
3188,0,323,370
3189,0,323,370
3190,0,323,370
3191,0,323,370
3192,0,323,370
3193,0,323,370
3194,0,323,370
3195,0,323,370
3196,0,323,370
3197,0,323,370
3198,0,323,370
3199,0,323,370
3200,0,323,370
3201,0,323,370
3202,0,323,370
3203,0,323,370
3204,0,323,370
3205,0,323,370
3206,0,323,370
3207,0,323,370
3208,0,323,370
3209,0,323,370
3210,0,323,370
3211,0,323,370
3212,0,323,370
3213,0,323,370
3214,0,323,370
3215,0,323,370
3216,0,323,370
3217,0,323,370
3218,0,323,370
3219,0,323,370
3220,0,323,370
3221,0,323,370
3222,0,323,370
3223,0,323,370
3233,0,174,376
3235,0,98,478
3237,0,121,377
3238,2.02105,113,377
3239,4.8,94,377
3240,2.02105,86,377
3241,4.04211,70,377
3242,2.02105,62,377
3243,2.28768,53,376
3244,1.76842,46,376
3245,4.29474,29,376
3246,1.76842,22,376
3251,1.76842,14,377
3252,0.757895,17,377
3253,0,16,378
3254,0,17,377
3255,0,18,377
3256,0,19,377
3257,0,20,377
3258,0,21,376
3259,0,21,376
3260,0,21,376
3261,0,22,376
3262,0,23,376
3263,0,23,375
3264,0,23,375
3265,0,24,375
3266,0,24,374
3267,0,24,374
3268,0,24,374
3269,0,24,373
3270,0,25,374
3271,0,26,374
3277,0,32,373
3278,1.5367,38,374
3279,0.757895,41,374
3280,1.51579,47,374
3281,0.798891,50,375
3282,1.51579,56,375
3283,0.757895,59,375
3284,1.26316,64,375
3285,0.757895,67,375
3286,0.757895,70,375
3287,0.798891,73,376
3288,1.51579,79,376
3289,0,81,376
3290,1.26316,86,376
3291,0,87,375
3292,1.01053,91,375
3293,1.01053,95,375
3294,1.6947,101,378
3295,0.910876,104,380
3296,1.1298,106,384
3297,1.04163,107,388
3298,1.92398,110,395
3299,1.59778,116,397
3300,1.26316,121,397
3301,1.5367,127,396
3302,3.54585,141,397
3303,2.02105,149,397
3304,2.63755,159,394
3305,2.02105,167,394
3306,1.51579,173,394
3307,2.28768,182,393
3308,1.04163,186,392
3309,2.27368,195,392
3310,1.28817,200,391
3311,2.03678,208,390
3312,1.01053,212,390
3313,1.28817,217,389
3314,2.03678,225,388
3315,1.01053,229,388
3316,1.04163,233,387
3318,1.04163,245,385
3320,1.04163,257,382
3322,1.04163,264,381
3323,2.08325,272,379
3324,0.757895,275,379
3325,2.32915,284,377
3327,2.32915,295,375
3328,1.04163,299,374
3330,1.04163,309,371
3331,2.08325,317,369
3332,0.798891,320,368
3347,0.798891,346,363
3349,0.798891,346,362
3350,0.564901,344,361
3353,0.564901,344,362
3354,0,345,363
3356,0,345,363
3357,0,345,363
3358,0,345,363
3359,0,345,363
3360,0,345,363
3361,0,345,363
3362,0,345,363
3363,0,345,363
3364,0,345,363
3365,0,345,363
3366,0,345,363
3367,0,345,363
3368,0,345,363
3369,0,345,363
3370,0,345,363
3371,0,345,363
3373,0,345,363
3374,0,345,363
3375,0,345,363
3376,0,345,363
3377,0,345,363
3378,0,345,362
3379,0,345,363
3381,0,345,363
3382,0,345,363
3383,0,345,363
3384,0,345,363
3385,0,345,363
3386,0,345,363
3387,0,345,363
3388,0,345,363
3389,0,345,363
3390,0,345,363
3391,0,345,363
3392,0,345,363
3393,0,345,363
3394,0,345,363
3395,0,345,363
3396,0,345,363
3397,0,344,363
3398,0,345,363
3399,0,345,363
3400,0,345,363
3401,0,345,363
3407,0,278,352
3408,1.28817,273,351
3410,1.28817,259,349
3414,1.28817,238,345
3415,2.03678,230,344
3416,1.1298,226,342
3417,1.01053,222,342
3418,2.08325,214,340
3419,1.04163,210,339
3420,2.03678,202,338
3421,1.04163,198,337
3422,2.08325,190,335
3423,0.798891,187,334
3424,2.03678,179,333
3425,1.28817,174,332
3426,0.564901,172,331
3427,1.01053,168,331
3428,1.6947,162,328
3429,0.757895,159,328
3430,1.83919,152,326
3431,0.798891,149,325
3432,1.78638,142,324
3433,0.798891,139,323
3434,0.798891,136,322
3435,1.59778,130,320
3436,0.798891,127,319
3437,1.59778,121,317
3438,0.798891,118,316
3439,0.757895,115,316
3440,2.08325,107,314
3441,0.910876,104,312
3443,0.910876,99,311
3444,10.1682,81,347
3445,8.8385,99,317
3446,1.51579,99,323
3447,0,99,325
3448,1.78638,100,332
3449,0.757895,100,335
3450,1.5367,101,341
3451,0.757895,101,344
3452,1.5367,102,350
3453,3.94623,90,360
3454,3.19556,102,356
3455,1.28817,103,361
3456,0.757895,103,364
3457,1.5367,104,370
3458,0.798891,105,373
3466,0.798891,92,402
3480,0.798891,107,403
3481,2.08325,115,401
3483,2.08325,137,397
3484,1.28817,142,398
3485,1.01053,146,398
3486,1.04163,150,397
3487,1.76842,157,397
3488,1.01053,161,397
3489,1.76842,168,397
3490,0.564901,170,398
3491,1.51579,176,398
3492,1.28817,181,399
3493,1.76842,188,399
3494,0.757895,191,399
3495,0.798891,194,400
3496,1.51579,200,400
3497,1.01053,204,400
3498,0.757895,207,400
3499,1.26316,212,400
3500,0.798891,215,401
3501,1.51579,221,401
3502,0.757895,224,401
3503,0,226,401
3505,0,235,402
3507,0,243,402
3508,1.26316,248,402
3509,1.5367,254,401
3510,1.28817,259,400
3511,2.28768,268,399
3512,1.28817,273,398
3513,1.28817,278,397
3514,2.03678,286,396
3515,1.28817,291,395
3516,2.32915,300,393
3517,1.28817,305,392
3527,1.28817,336,374
3528,0.564901,335,372
3529,0,335,373
3530,0,335,373
3531,0,335,373
3532,0,335,374
3533,0,335,374
3534,0,335,373
3535,0,335,373
3536,0.564901,336,371
3537,0,336,372
3538,0,336,372
3539,0,336,373
3540,0,337,373
3541,0,337,372
3542,0,337,372
3543,0,337,372
3544,0,337,372
3545,0,337,372
3546,0,337,372
3547,0,337,373
3548,0,337,373
3550,0,337,373
3551,0,337,373
3552,0,337,373
3554,0,337,373
3560,0,336,373
3562,0,337,373
3563,0,337,373
3568,0,337,373
3569,0,337,373
3571,0,337,373
3572,0,337,373
3573,0,337,373
3574,0,337,373
3579,0,337,373
3581,0,337,373
3582,0,337,373
3584,0,337,373
3586,0,337,373
3590,0,336,372
3591,0,337,373
3602,0,197,340
3605,0,159,331
3606,2.03678,151,330
3607,1.83919,144,328
3609,1.83919,122,323
3611,1.83919,100,319
3612,3.86452,85,316
3613,1.36046,80,314
3614,3.82301,65,312
3615,1.59778,59,310
3616,2.03678,51,309
3617,3.32285,38,307
3618,1.59778,32,305
3619,1.78638,25,304
3625,1.78638,15,297
3626,0,15,296
3627,0.564901,17,295
3628,0,18,294
3629,0.798891,21,293
3630,0,22,292
3631,0.564901,24,291
3632,0,25,290
3633,0,26,290
3634,0.564901,28,289
3635,0,30,289
3636,0,31,288
3637,0,32,288
3638,0,33,288
3639,0,34,288
3640,0,35,288
3641,0.71455,37,290
3642,0.798891,38,293
3643,1.1298,40,297
3644,1.83919,42,304
3645,1.36046,44,309
3646,1.83919,46,316
3647,1.04163,47,320
3648,2.15849,50,328
3649,1.04163,51,332
3650,1.04163,52,336
3651,1.1298,54,340
3654,1.1298,47,357
3661,1.1298,99,374
3662,1.76842,106,374
3663,2.03678,114,375
3664,3.53684,128,375
3665,3.03158,140,375
3666,1.51579,146,375
3667,1.26316,151,375
3668,1.51579,157,375
3669,2.52632,167,375
3670,1.5367,173,376
3671,2.77895,184,376
3672,1.5367,190,377
3673,2.77895,201,377
3674,1.51579,207,377
3677,1.51579,228,378
3678,1.26316,233,378
3679,2.77895,244,378
3683,2.77895,274,379
3684,2.79041,285,380
3685,1.28817,290,381
3686,2.77895,301,381
3687,1.26316,306,381
3696,1.26316,334,376
3697,0,334,375
3698,0,333,374
3699,0,333,374
3700,0,332,373
3701,0,332,374
3702,0,332,374
3703,0,332,373
3704,0,332,374
3705,0,331,374
3706,0,331,374
3707,0,331,375
3708,0,331,375
3709,0,331,375
3710,0,331,375
3711,0,331,375
3712,0,331,375
3713,0,331,374
3714,0,331,375
3715,0,331,375
3716,0,331,375
3717,0,331,375
3718,0,331,375
3719,0,331,375
3720,0,331,375
3721,0,331,375
3722,0,331,375
3723,0,331,375
3724,0,331,375
3725,0,331,374
3726,0,331,375
3727,0,331,375
3728,0,331,375
3729,0,331,375
3730,0,331,374
3731,0,331,375
3732,0,331,375
3733,0,331,375
3734,0,331,375
3735,0,331,374
3736,0,331,375
3737,0,331,375
3738,0,331,375
3739,0,331,375
3740,0,331,374
3741,0,331,375
3742,0,331,375
3743,0,331,375
3744,0,331,375
3745,0,331,375
3746,0,331,375
3747,0,331,375
3762,0,120,402
3763,1.28817,115,403
3777,1.28817,110,398
3778,1.28817,115,397
3779,1.36046,120,395
3780,1.04163,124,394
3781,2.63755,134,391
3782,1.04163,138,390
3783,1.28817,143,389
3784,2.15849,151,386
3785,1.04163,155,385
3786,2.32915,164,383
3787,1.04163,168,382
3788,1.92398,175,379
3789,1.26316,180,379
3790,2.15849,188,376
3791,1.28817,193,375
3792,0.798891,196,374
3793,2.08325,204,372
3794,1.04163,208,371
3795,2.08325,216,369
3797,2.08325,227,365
3798,1.83919,234,363
3800,1.83919,245,360
3801,1.04163,249,359
3802,1.83919,256,357
3804,1.83919,266,354
3807,1.83919,283,348
3808,0.757895,286,348
3809,0.798891,289,347
3810,1.92398,296,344
3811,1.01053,300,344
3819,1.01053,330,365
3820,0,331,366
3821,0.564901,333,367
3822,0,333,368
3823,0,334,368
3824,0,334,369
3825,0.564901,336,370
3826,0,336,370
3827,0,337,370
3828,0,337,371
3829,0,338,371
3830,0,339,371
3836,0,343,370
3838,0,344,368
3839,0,344,368
3841,0,345,369
3842,0,346,368
3843,0,346,369
3844,0,347,368
3845,0,347,369
3846,0,347,369
3847,0,348,369
3848,0,348,369
3849,0,348,369
3850,0,349,369
3851,0,349,369
3852,0,349,369
3853,0,350,369
3854,0,350,369
3855,0,351,369
3856,0,351,369
3857,0,352,369
3858,0,352,369
3859,0,352,369
3862,0,353,370
3863,0,353,370
3864,0,353,370
3865,0,353,371
3866,0,353,371
3867,0,353,371
3868,0,353,371
3873,0,354,371
3874,0,354,371
3875,0,353,371
3876,0,353,371
3877,0,353,371
3878,0,354,371
3880,0,354,371
3882,0,353,371
3883,0,353,371
3884,0,353,371
3885,0,354,371
3886,0,354,371
3887,0,354,371
3888,0,354,371
3889,0,354,371
3890,0,354,371
3892,0,354,371
3893,0,353,371
3894,0,354,371
3895,0,354,371
3896,0,354,371
3897,0,353,371
3898,0,353,371
3899,0,354,371
3900,0,353,371
3902,0,354,371
3903,0,354,371
3904,0,354,371
3920,0,123,376
3921,4.04999,107,377
3922,2.28768,98,376
3923,4.04999,82,377
3925,4.04999,69,375
3936,4.04999,425,371
3938,4.04999,425,371
3939,0.564901,426,369
3942,0.564901,426,366
3943,75.6905,128,397
3944,1.59778,134,395
3945,40.6227,294,379
3946,36.5269,150,392
3947,40.0722,308,378
3948,3.82301,323,376
3949,1.78638,316,377
3950,11.3937,271,380
3951,5.32927,292,378
3952,26.6032,187,386
3953,1.04163,191,385
3954,1.01053,195,385
3955,2.08325,203,383
3956,1.01053,207,383
3957,1.04163,211,382
3958,2.03678,219,381
3959,2.08325,227,379
3960,0.757895,230,379
3961,1.04163,234,378
3962,1.78638,241,377
3963,1.04163,245,376
3965,1.04163,256,374
3966,0.757895,259,374
3967,1.83919,266,372
3968,0.798891,269,371
3969,1.78638,276,370
3970,1.01053,280,370
3971,2.03678,288,369
3972,0.798891,291,368
3973,0.757895,294,368
3974,1.78638,301,367
3976,1.78638,308,366
3977,1.78638,315,365
3978,0.798891,318,364
3979,1.78638,325,363
3980,1.01053,329,363
3981,0.757895,332,363
3989,0.757895,359,372
3990,0,359,373
3991,0,359,372
3992,0,358,373
3993,0,358,373
3994,0,357,373
3995,0,357,373
3996,0,357,373
3997,0,357,373
3998,0,356,372
3999,0,356,372
4000,0,356,372
4001,0,355,372
4002,0,355,373
4003,0,355,373
4004,0,355,373
4005,0,354,373
4006,0,354,373
4007,0,354,373
4008,0,354,373
4009,0,355,373
4010,0,354,373
4011,0,355,373
4012,0,355,373
4013,0,355,373
4014,0,354,373
4015,0,354,373
4016,0,354,373
4017,0,354,374
4018,0,354,373
4019,0,355,373
4020,0,354,373
4021,0,354,373
4022,0,354,373
4023,0,354,373
4024,0,354,373
4025,0,355,373
4026,0,354,373
4027,0,354,373
4028,0,354,373
4029,0,354,373
4030,0,354,373
4031,0,354,373
4032,0,354,373
4033,0,354,373
4034,0,354,373
4035,0,354,373
4036,0,354,373
4037,0,354,373
4038,0,354,373
4039,0,355,373
4040,0,354,373
4041,0,354,373
4042,0,354,373
4043,0,354,373
4044,0,354,373
4045,0,354,373
4046,0,354,373
4047,0,354,373
4048,0,354,373
4049,0,354,373
4050,0,354,373
4051,0,354,373
4052,0,354,373
4053,0,354,373
4054,0,354,373
4055,0,354,373
4056,0,354,373
4057,0,354,373
4058,0,354,373
4059,0,354,373
4060,0,355,373
4061,0,354,373
4062,0,354,373
4063,0,354,373
4064,0,354,373
4065,0,354,373
4066,0,354,373
4067,0,354,373
4068,0,355,373
4069,0,354,373
4070,0,354,373
4071,0,354,373
4072,0,355,373
4073,0,354,373
4074,0,354,373
4075,0,355,373
4076,0,354,373
4077,0,354,373
4078,0,354,373
4079,0,354,373
4080,0,354,373
4081,0,354,373
4094,0,190,323
4095,4.23488,174,318
4097,4.23488,409,374
4098,0,409,374
4099,39.3368,258,336
4100,34.6805,125,302
4101,1.59778,119,300
4102,3.43616,106,296
4103,3.9219,91,292
4104,1.47308,86,289
4105,1.83919,79,287
4106,3.43616,66,283
4107,1.59778,60,281
4108,3.43616,47,277
4109,1.59778,41,275
4110,3.05256,30,270
4154,3.05256,29,275
4155,1.47308,32,280
4156,3.08376,39,290
4157,1.1298,41,294
4158,3.16546,47,305
4173,3.16546,120,390
4174,4.80664,139,389
4175,1.01053,143,389
4176,2.79041,154,390
4177,1.5367,160,389
4178,2.02105,168,389
4179,1.26316,173,389
4180,1.01053,177,389
4181,2.77895,188,389
4182,1.01053,192,389
4183,1.28817,197,388
4184,2.27368,206,388
4185,1.26316,211,388
4186,2.28768,220,387
4187,1.28817,225,386
4189,1.28817,238,386
4193,1.28817,264,383
4194,1.28817,269,382
4195,1.78638,276,381
4196,1.26316,281,381
4197,1.26316,286,381
4198,1.04163,290,380
4199,2.03678,298,379
4200,1.04163,302,378
4201,2.28768,311,377
4202,1.04163,315,376
4203,2.02105,323,376
4204,1.1298,327,374
4205,2.03678,335,373
4206,1.04163,339,372
4207,1.01053,343,372
4208,2.08325,351,370
4227,2.08325,370,366
4228,0,371,367
4229,0,370,367
4230,0,371,367
4231,0,371,367
4232,0,371,367
4233,0,371,367
4234,0,370,366
4235,0,370,366
4236,0,370,367
4237,0,370,366
4238,0,370,366
4239,0,370,366
4240,0,370,366
4241,0,370,367
4242,0,370,366
4243,0,370,367
4244,0,370,367
4245,0,370,366
4246,0,370,367
4247,0,370,367
4248,0,370,367
4249,0,370,367
4251,0,370,367
4252,0,370,366
4253,0,370,367
4255,0,370,367
4256,0,370,366
4257,0,371,3